<svg xmlns="http://www.w3.org/2000/svg" viewBox="0 0 24 24">
	<style>
		path {
			fill: #000000;
		}
		@media (prefers-color-scheme: dark) {
			path { fill: #ffffff; }
		}
	</style>
	<path d="M11.6 13v-.1l-.3-.3h-.1L9.6 12c.4-.3.8-.5 1.3-.5s1 .2 1.4.6c.4.4.6.8.6 1.3s-.1.9-.5 1.3l-.8-1.7m-1.9 6.3c-.3-1-.1-2.2.7-3.8l1.2 3.1c.2.6 0 1-.6 1.3-.6.3-1 .1-1.3-.6m-5.6-6.2c.2-.6.6-.8 1.2-.6l3.2 1.2c-1.6.8-2.8 1-3.8.7-.6-.3-.8-.7-.6-1.3m7.9-5h-1v1.4h-.4c-1.1 0-2 .4-2.8 1.2l-.4.6-1.4-.8c-.3-.1-.6-.1-1-.1-.6 0-1.2.2-1.7.6s-.9.8-1.1 1.4c-.2.7-.2 1.3 0 2 .3.7.6 1.2 1.1 1.5-.4 1.5-.1 2.8 1 3.9.8.8 1.7 1.2 2.8 1.2.5 0 .8 0 1.1-.1.6.8 1.4 1.3 2.4 1.3.3 0 .7 0 1-.1.6-.2 1-.6 1.4-1.1.4-.6.6-1.1.6-1.7 0-.4 0-.7-.1-1l-.6-1.4.6-.4c.8-.8 1.2-1.9 1.1-3.1H16v-1h-1.6c-.4-1.2-1.2-2-2.4-2.4V8.1m5.3-1.3c-.2-.2-.3-.5-.3-.7 0-.3.1-.5.3-.7.2-.2.4-.3.7-.3s.5.1.7.3c.2.1.3.4.3.7 0 .3-.1.5-.3.7-.2.2-.4.2-.7.2s-.5 0-.7-.2m3.4-2.7h-1.1l-.3-.9c-.2-.7-.6-1-1.3-1-.7 0-1.2.3-1.3 1l-.3.9h-1.1c-.6 0-1 .3-1.3.9-.2.6 0 1.1.6 1.5l.9.5-.4 1.2c-.2.4-.1.8.1 1.2.3.4.6.6 1.1.6.4 0 .7-.1.9-.3l.8-.6.8.7c.2.1.5.2.9.2.5 0 .8-.2 1.1-.6.2-.4.3-.8.1-1.2L20.5 7l.8-.5c.6-.4.8-.9.6-1.5-.2-.7-.6-.9-1.2-.9Z"/>
</svg>
