// Jest Snapshot v1, https://goo.gl/fbAQLP

exports[`Games A user gets the list of games 1`] = `
[
  {
    "canvasHeight": 768,
    "canvasWidth": 1024,
    "currentNumberOfPlayers": 0,
    "id": "1",
    "maximumNumberOfPlayers": 2,
    "name": "1",
  },
  {
    "canvasHeight": 400,
    "canvasWidth": 533,
    "currentNumberOfPlayers": 0,
    "id": "2",
    "maximumNumberOfPlayers": 2,
    "name": "2",
  },
]
`;

exports[`Games A user updates the list of games when another user joins a game 1`] = `
{
  "backgroundColor": "#222222",
  "canvasHeight": 768,
  "canvasWidth": 1024,
  "currentNumberOfPlayers": 0,
  "id": "1",
  "maximumNumberOfPlayers": 2,
  "name": "1",
  "playersData": Map {},
  "sortedStrokes": [],
}
`;

exports[`Games A user updates the list of games when another user joins a game 2`] = `
{
  "backgroundColor": "#222222",
  "canvasHeight": 400,
  "canvasWidth": 533,
  "currentNumberOfPlayers": 0,
  "id": "2",
  "maximumNumberOfPlayers": 2,
  "name": "2",
  "playersData": Map {},
  "sortedStrokes": [],
}
`;

exports[`Games A user updates the list of games when another user joins a game 3`] = `
[
  {
    "canvasHeight": 768,
    "canvasWidth": 1024,
    "currentNumberOfPlayers": 1,
    "id": "1",
    "maximumNumberOfPlayers": 2,
    "name": "1",
  },
  {
    "canvasHeight": 400,
    "canvasWidth": 533,
    "currentNumberOfPlayers": 1,
    "id": "2",
    "maximumNumberOfPlayers": 2,
    "name": "2",
  },
]
`;
