// Jest Snapshot v1, https://goo.gl/fbAQLP

exports[`Send background data A user changes the game background 1`] = `
{
  "backgroundColor": "#222222",
  "canvasHeight": 768,
  "canvasWidth": 1024,
  "currentNumberOfPlayers": 0,
  "id": "1",
  "maximumNumberOfPlayers": 2,
  "name": "1",
  "playersData": Map {},
  "sortedStrokes": [],
}
`;

exports[`Send background data A user changes the game background 2`] = `
{
  "backgroundColor": "#123abc",
  "canvasHeight": 768,
  "canvasWidth": 1024,
  "currentNumberOfPlayers": 1,
  "id": "1",
  "maximumNumberOfPlayers": 2,
  "name": "1",
  "playersData": Map {
    "1" => {
      "_SAId": 3,
      "strokes": [],
      "timestamp": 1626123273014,
    },
    "2" => {
      "strokes": [],
      "timestamp": 1626123273014,
    },
  },
  "sortedStrokes": [],
  "yourself": "1",
}
`;

exports[`Send background data A user changes the game background 3`] = `
{
  "backgroundColor": "#123abc",
  "canvasHeight": 768,
  "canvasWidth": 1024,
  "currentNumberOfPlayers": 2,
  "id": "1",
  "maximumNumberOfPlayers": 2,
  "name": "1",
  "playersData": Map {
    "1" => {
      "_SAId": 3,
      "strokes": [],
      "timestamp": 1626123273014,
    },
    "2" => {
      "_SAId": 5,
      "strokes": [],
      "timestamp": 1626123273014,
    },
  },
  "sortedStrokes": [],
  "yourself": "2",
}
`;
